…
```
## # A tibble: 88 x 6
##    genotype treatment   g_i shade_i flat2 stem_length
##    <chr>    <chr>     <int>   <int> <int>       <dbl>
##  1 phyB1/B2 shade         4       1     1       224. 
##  2 phyB1/B2 shade         4       1     1       167. 
##  3 phyB1/B2 shade         4       1     2       224. 
##  4 phyB1/B2 shade         4       1     3       196. 
##  5 phyB1/B2 shade         4       1     3       258. 
##  6 phyB1/B2 shade         4       1     5       227. 
##  7 phyB1/B2 sun           4       0     7       113. 
##  8 phyB1/B2 sun           4       0     7       148. 
##  9 phyB1/B2 sun           4       0     8        96.2
## 10 phyB1/B2 sun           4       0     9       160. 
## # … with 78 more rows
```
…
