…
Different intercepts for the different RILs, but no evidence of interaction.

Q3:
Because we are more interested in the effects of individual loci than the performance of specific genotypes, fit a model with additive effects of the five loci and effect of treatment.  


```r
dat3 <- data %>% select(reproduction, NoCurtain, NightBreak, starts_with("loc")) %>%
  mutate_at(vars(starts_with("loc")), ~ ifelse(.=="A", 1L, 0L))

dat3
```

```
## # A tibble: 188 x 8
##    reproduction NoCurtain NightBreak  loc1  loc2  loc3  loc4  loc5
##           <dbl>     <int>      <int> <int> <int> <int> <int> <int>
##  1            0         0          0     0     0     1     0     1
##  2            0         0          0     1     0     0     1     1
##  3            0         0          0     0     1     0     0     1
##  4            0         0          0     0     0     0     1     1
##  5            0         0          0     0     1     0     0     0
##  6            1         0          0     0     0     0     0     0
##  7            0         0          0     1     1     1     0     0
##  8            0         0          0     0     0     1     1     1
##  9            1         0          0     1     0     0     1     0
## 10            0         0          0     0     1     1     0     0
## # … with 178 more rows
```
…
Q5:
By simplifying the developmental score phenotype into a binary variable that indicates whether a plant has entered reproductive growth, we run the risk of losing potentially important information. Re-fit your favorite model from Q4 with the ordered categorical outcome variable of "Score." Do you observe any changes in your results? If so, why do you think it happened?


```r
dat5 <- data %>% select(Score, NoCurtain, NightBreak, starts_with("loc")) %>%
  mutate_at(vars(starts_with("loc")), ~ ifelse(.=="P", 1L, 0L))

dat5
```

```
## # A tibble: 188 x 8
##    Score NoCurtain NightBreak  loc1  loc2  loc3  loc4  loc5
##    <dbl>     <int>      <int> <int> <int> <int> <int> <int>
##  1     2         0          0     1     1     0     1     0
##  2     2         0          0     0     1     1     0     0
##  3     1         0          0     1     0     1     1     0
##  4     2         0          0     1     1     1     0     0
##  5     2         0          0     1     0     1     1     1
##  6     3         0          0     1     1     1     1     1
##  7     1         0          0     0     0     0     1     1
##  8     2         0          0     1     1     0     0     0
##  9     3         0          0     0     1     1     0     1
## 10     1         0          0     1     0     0     1     1
## # … with 178 more rows
```
…
sort(unique(dat6$Plot))
```

```
##  [1]  1  2  3  4  5  6  7  8  9 10 11 12 13 14 15 16 17 18 19 20 21 22 23 24 25
## [26] 26 27 28 29 30 31 32
```

```r
dat6
```

```
## # A tibble: 188 x 9
##    reproduction NoCurtain NightBreak  loc1  loc2  loc3  loc4  loc5  Plot
##           <dbl>     <int>      <int> <int> <int> <int> <int> <int> <dbl>
##  1            0         0          0     1     1     0     1     0     1
##  2            0         0          0     0     1     1     0     0     2
##  3            0         0          0     1     0     1     1     0     3
##  4            0         0          0     1     1     1     0     0     4
##  5            0         0          0     1     0     1     1     1     5
##  6            1         0          0     1     1     1     1     1     6
##  7            0         0          0     0     0     0     1     1     7
##  8            0         0          0     1     1     0     0     0     8
##  9            1         0          0     0     1     1     0     1     9
## 10            0         0          0     1     0     0     1     1    10
## # … with 178 more rows
```
…
