…
```r
data %>% arrange(pop)
```

```
## # A tibble: 3,250 x 15
##    temperature_dif…   blk nov_germ pop   dam   sire  nov_size mar_surv mar_size
##               <dbl> <dbl>    <dbl> <chr> <chr> <chr>    <dbl>    <dbl>    <dbl>
##  1            -1.30     3        1 AC    AC21  AC47         5        1       10
##  2            -1.30     1        1 AC    AC24  AC49         3        1        6
##  3            -1.30     1        1 AC    AC44  AC24        NA        1        6
##  4            -1.30     1        1 AC    AC17  AC13         4        1        6
##  5            -1.30     1        1 AC    AC19  AC05         3        1        8
##  6            -1.30     1        1 AC    AC38  AC21        NA        1        4
##  7            -1.30     1        1 AC    AC38  AC21        NA        1        2
##  8            -1.30     1        1 AC    AC05  AC17         4        1        8
##  9            -1.30     1        1 AC    AC24  AC49        NA        1        4
## 10            -1.30     2        1 AC    AC47  AC03         4        1        4
## # … with 3,240 more rows, and 6 more variables: fruit_count <dbl>,
## #   total_est_seeds <dbl>, temperature_diff_annual <dbl>,
## #   precip_diff_spring <dbl>, first_fl_julian <dbl>, last_fl_julian <dbl>
```
…
```r
pred.df <- tibble(temp = seq(-2,2,.1))

pred.df <- pred.df %>%
  mutate(posterior.pred=map(temp, ~ link_avg_blk(post, temp=.)))

pred.df # a tibble of tables
```

```
## # A tibble: 41 x 2
##     temp posterior.pred         
##    <dbl> <list>                 
##  1 -2    <dbl[,15] [8,000 × 15]>
##  2 -1.9  <dbl[,15] [8,000 × 15]>
##  3 -1.8  <dbl[,15] [8,000 × 15]>
##  4 -1.7  <dbl[,15] [8,000 × 15]>
##  5 -1.6  <dbl[,15] [8,000 × 15]>
##  6 -1.5  <dbl[,15] [8,000 × 15]>
##  7 -1.4  <dbl[,15] [8,000 × 15]>
##  8 -1.30 <dbl[,15] [8,000 × 15]>
##  9 -1.2  <dbl[,15] [8,000 × 15]>
## 10 -1.1  <dbl[,15] [8,000 × 15]>
## # … with 31 more rows
```

now compute mean and hpdi for each temperature

```r
pred.df <- pred.df %>%
  mutate(mean=map(posterior.pred, ~ apply(., 2, mean)),
         low89=map(posterior.pred, ~ apply(., 2, HPDI)[1,]),
         high89=map(posterior.pred, ~ apply(., 2, HPDI)[2,]),
  )
pred.df
```

```
## # A tibble: 41 x 5
##     temp posterior.pred          mean       low89      high89    
##    <dbl> <list>                  <list>     <list>     <list>    
##  1 -2    <dbl[,15] [8,000 × 15]> <dbl [15]> <dbl [15]> <dbl [15]>
##  2 -1.9  <dbl[,15] [8,000 × 15]> <dbl [15]> <dbl [15]> <dbl [15]>
##  3 -1.8  <dbl[,15] [8,000 × 15]> <dbl [15]> <dbl [15]> <dbl [15]>
##  4 -1.7  <dbl[,15] [8,000 × 15]> <dbl [15]> <dbl [15]> <dbl [15]>
##  5 -1.6  <dbl[,15] [8,000 × 15]> <dbl [15]> <dbl [15]> <dbl [15]>
##  6 -1.5  <dbl[,15] [8,000 × 15]> <dbl [15]> <dbl [15]> <dbl [15]>
##  7 -1.4  <dbl[,15] [8,000 × 15]> <dbl [15]> <dbl [15]> <dbl [15]>
##  8 -1.30 <dbl[,15] [8,000 × 15]> <dbl [15]> <dbl [15]> <dbl [15]>
##  9 -1.2  <dbl[,15] [8,000 × 15]> <dbl [15]> <dbl [15]> <dbl [15]>
## 10 -1.1  <dbl[,15] [8,000 × 15]> <dbl [15]> <dbl [15]> <dbl [15]>
## # … with 31 more rows
```
…
```
## Warning: unnest() has a new interface. See ?unnest for details.
## Try `df %>% unnest(c(mean, low89, high89))`, with `mutate()` if needed
```

```r
plot.df
```

```
## # A tibble: 615 x 5
##     temp  mean low89 high89 pop  
##    <dbl> <dbl> <dbl>  <dbl> <chr>
##  1    -2 0.650 0.554  0.751 AC   
##  2    -2 0.674 0.546  0.825 AD   
##  3    -2 0.650 0.529  0.771 AQ   
##  4    -2 0.743 0.662  0.828 AR   
##  5    -2 0.710 0.623  0.793 AS   
##  6    -2 0.755 0.671  0.847 AX   
##  7    -2 0.715 0.581  0.859 AY   
##  8    -2 0.644 0.548  0.751 AZ   
##  9    -2 0.644 0.483  0.826 BB   
## 10    -2 0.718 0.571  0.888 BC   
## # … with 605 more rows
```
…
```r
pred.df <- tibble(temp = seq(-2,2,.1))

pred.df <- pred.df %>%
  mutate(posterior.pred=map(temp, ~ link_avg_blk_avg_pop(post, temp=.)))

pred.df # a tibble of tables
```

```
## # A tibble: 41 x 2
##     temp posterior.pred
##    <dbl> <list>        
##  1 -2    <dbl [8,000]> 
##  2 -1.9  <dbl [8,000]> 
##  3 -1.8  <dbl [8,000]> 
##  4 -1.7  <dbl [8,000]> 
##  5 -1.6  <dbl [8,000]> 
##  6 -1.5  <dbl [8,000]> 
##  7 -1.4  <dbl [8,000]> 
##  8 -1.30 <dbl [8,000]> 
##  9 -1.2  <dbl [8,000]> 
## 10 -1.1  <dbl [8,000]> 
## # … with 31 more rows
```

now compute mean and hpdi for each temperature

```r
pred.df <- pred.df %>%
  mutate(mean=map_dbl(posterior.pred, ~ mean(.)),
         low89=map_dbl(posterior.pred, ~ HPDI(.)[1]),
         high89=map_dbl(posterior.pred, ~ HPDI(.)[2]),
  )
pred.df
```

```
## # A tibble: 41 x 5
##     temp posterior.pred  mean low89 high89
##    <dbl> <list>         <dbl> <dbl>  <dbl>
##  1 -2    <dbl [8,000]>  0.651 0.537  0.782
##  2 -1.9  <dbl [8,000]>  0.646 0.533  0.774
##  3 -1.8  <dbl [8,000]>  0.641 0.529  0.765
##  4 -1.7  <dbl [8,000]>  0.636 0.526  0.757
##  5 -1.6  <dbl [8,000]>  0.631 0.523  0.750
##  6 -1.5  <dbl [8,000]>  0.627 0.524  0.747
##  7 -1.4  <dbl [8,000]>  0.622 0.518  0.737
##  8 -1.30 <dbl [8,000]>  0.617 0.511  0.724
##  9 -1.2  <dbl [8,000]>  0.611 0.512  0.721
## 10 -1.1  <dbl [8,000]>  0.606 0.509  0.713
## # … with 31 more rows
```
…
```r
pred.df <- tibble(temp = seq(-2,2,.1)) 

pred.df <- pred.df %>%
  mutate(posterior.pred=map(temp, ~ link_blk(post, temp=.)))

pred.df # a tibble of tables
```

```
## # A tibble: 41 x 2
##     temp posterior.pred         
##    <dbl> <list>                 
##  1 -2    <dbl[,15] [8,000 × 15]>
##  2 -1.9  <dbl[,15] [8,000 × 15]>
##  3 -1.8  <dbl[,15] [8,000 × 15]>
##  4 -1.7  <dbl[,15] [8,000 × 15]>
##  5 -1.6  <dbl[,15] [8,000 × 15]>
##  6 -1.5  <dbl[,15] [8,000 × 15]>
##  7 -1.4  <dbl[,15] [8,000 × 15]>
##  8 -1.30 <dbl[,15] [8,000 × 15]>
##  9 -1.2  <dbl[,15] [8,000 × 15]>
## 10 -1.1  <dbl[,15] [8,000 × 15]>
## # … with 31 more rows
```

now compute mean and hpdi for each temperature

```r
pred.df <- pred.df %>%
  mutate(mean=map(posterior.pred, ~ apply(., 2, mean)), 
         low89=map(posterior.pred, ~ apply(., 2, HPDI)[1,]),
         high89=map(posterior.pred, ~ apply(., 2, HPDI)[2,]),
  )
pred.df
```

```
## # A tibble: 41 x 5
##     temp posterior.pred          mean       low89      high89    
##    <dbl> <list>                  <list>     <list>     <list>    
##  1 -2    <dbl[,15] [8,000 × 15]> <dbl [15]> <dbl [15]> <dbl [15]>
##  2 -1.9  <dbl[,15] [8,000 × 15]> <dbl [15]> <dbl [15]> <dbl [15]>
##  3 -1.8  <dbl[,15] [8,000 × 15]> <dbl [15]> <dbl [15]> <dbl [15]>
##  4 -1.7  <dbl[,15] [8,000 × 15]> <dbl [15]> <dbl [15]> <dbl [15]>
##  5 -1.6  <dbl[,15] [8,000 × 15]> <dbl [15]> <dbl [15]> <dbl [15]>
##  6 -1.5  <dbl[,15] [8,000 × 15]> <dbl [15]> <dbl [15]> <dbl [15]>
##  7 -1.4  <dbl[,15] [8,000 × 15]> <dbl [15]> <dbl [15]> <dbl [15]>
##  8 -1.30 <dbl[,15] [8,000 × 15]> <dbl [15]> <dbl [15]> <dbl [15]>
##  9 -1.2  <dbl[,15] [8,000 × 15]> <dbl [15]> <dbl [15]> <dbl [15]>
## 10 -1.1  <dbl[,15] [8,000 × 15]> <dbl [15]> <dbl [15]> <dbl [15]>
## # … with 31 more rows
```



```r
plot.df <- pred.df %>% select(-posterior.pred) %>%  
  unnest(c(mean, low89, high89)) %>%
  mutate(pop=rep_along(mean, levels(factor(data$pop)) )) # an unsatisfying way to handle this
plot.df
```

```
## # A tibble: 615 x 5
##     temp  mean low89 high89 pop  
##    <dbl> <dbl> <dbl>  <dbl> <chr>
##  1    -2 0.649 0.495  0.766 AC   
##  2    -2 0.673 0.508  0.839 AD   
##  3    -2 0.650 0.490  0.794 AQ   
##  4    -2 0.741 0.608  0.840 AR   
##  5    -2 0.708 0.572  0.813 AS   
##  6    -2 0.753 0.624  0.862 AX   
##  7    -2 0.714 0.551  0.878 AY   
##  8    -2 0.643 0.492  0.766 AZ   
##  9    -2 0.643 0.444  0.836 BB   
## 10    -2 0.716 0.535  0.895 BC   
## # … with 605 more rows
```
…
