Chapter8
…
## See spec(...) for full column specifications.

d

## # A tibble: 1,008 x 3
##      hyp trt   species        
##    <dbl> <chr> <chr>          
##  1  19.5 H     S. pennellii   
##  2  31.3 H     S. peruvianum  
##  3  56.6 H     S. peruvianum  
##  4  35.2 H     S. chilense    
##  5  35.3 H     S. chilense    
##  6  28.7 H     S. chmielewskii
##  7  33.1 H     S. habrochaites
##  8  42.1 H     S. pennellii   
##  9  32.7 H     S. peruvianum  
## 10  34.3 H     S. peruvianum  
## #  with 998 more rows
…
quick dummy variable creation

dummy <- tibble(ID=1:100, trt=sample(LETTERS[1:4], size = 100, replace=TRUE))
dummy %>% spread(key=trt,value=trt) %>%
  mutate_at(.vars=vars(-ID), ~ ifelse(is.na(.), 0, 1))

## # A tibble: 100 x 5
##       ID     A     B     C     D
##    <int> <dbl> <dbl> <dbl> <dbl>
##  1     1     0     0     0     1
##  2     2     0     1     0     0
##  3     3     1     0     0     0
##  4     4     0     0     0     1
##  5     5     0     0     0     1
##  6     6     0     0     0     1
##  7     7     0     1     0     0
##  8     8     0     0     1     0
##  9     9     0     1     0     0
## 10    10     0     0     1     0
## #  with 90 more rows
…
