…
plot observed and expected

```r
pred <- link(m10h4.2)
pred_obs <- as_tibble(cbind(
  salamanders,
  mu=colMeans(pred),
  low.89=apply(pred,2,HPDI)[1,],
  high.89=apply(pred, 2, HPDI)[2,]))
pred_obs
```

```
## # A tibble: 47 x 9
##     SITE SALAMAN PCTCOVER FORESTAGE pctcover_std[,1] forestage_std[,…    mu
##    <int>   <int>    <int>     <int>            <dbl>            <dbl> <dbl>
##  1     1      13       85       316            0.727            0.761  3.76
##  2     2      11       86        88            0.755           -0.418  3.79
##  3     3      11       90       548            0.867            1.96   4.38
##  4     4       9       88        64            0.811           -0.542  3.98
##  5     5       8       89        43            0.839           -0.650  4.08
##  6     6       7       83       368            0.671            1.03   3.60
##  7     7       6       83       200            0.671            0.161  3.54
##  8     8       6       91        71            0.895           -0.505  4.29
##  9     9       5       88        42            0.811           -0.655  3.97
## 10    10       5       90       551            0.867            1.98   4.38
## # … with 37 more rows, and 2 more variables: low.89 <dbl>, high.89 <dbl>
```
…
plot observed and expected

```r
pred <- link(m10h4.3)
pred_obs <- as_tibble(cbind(
  salamanders,
  mu=colMeans(pred),
  low.89=apply(pred,2,HPDI)[1,],
  high.89=apply(pred, 2, HPDI)[2,]))
pred_obs
```

```
## # A tibble: 47 x 9
##     SITE SALAMAN PCTCOVER FORESTAGE pctcover_std[,1] forestage_std[,…    mu
##    <int>   <int>    <int>     <int>            <dbl>            <dbl> <dbl>
##  1     1      13       85       316            0.727            0.761  3.95
##  2     2      11       86        88            0.755           -0.418  3.84
##  3     3      11       90       548            0.867            1.96   3.99
##  4     4       9       88        64            0.811           -0.542  4.02
##  5     5       8       89        43            0.839           -0.650  4.13
##  6     6       7       83       368            0.671            1.03   4.00
##  7     7       6       83       200            0.671            0.161  3.74
##  8     8       6       91        71            0.895           -0.505  4.32
##  9     9       5       88        42            0.811           -0.655  4.03
## 10    10       5       90       551            0.867            1.98   3.99
## # … with 37 more rows, and 2 more variables: low.89 <dbl>, high.89 <dbl>
```
…
