…
4H2.
----

*Select out all the rows in the Howell1 data with ages below 18 years of
age. If you do it right, you should end up with a new data frame with
192 rows in it.*

``` {.r}
d3 <- Howell1 %>% as_tibble() %>% filter(age < 18)
d3
```

    ## # A tibble: 192 x 4
    ##    height weight   age  male
    ##     <dbl>  <dbl> <dbl> <int>
    ##  1  122.    19.6  12       1
    ##  2  105.    13.9   8       0
    ##  3   86.4   10.5   6.5     0
    ##  4  130.    23.6  13       1
    ##  5  109.    16.0   7       0
    ##  6  137.    27.3  17       1
    ##  7  126.    22.7  16       0
    ##  8  114.    17.9  11       1
    ##  9  145.    28.8  17       0
    ## 10  122.    20.4   8       1
    ## # … with 182 more rows
…
try to plot with ggplot...

``` {.r}
plot.data <- as_tibble(cbind(weight.seq, mu.mean, t(mu.HPDI), t(sim.HPDI))) %>%
  rename(weight=weight.seq, mu.89l=`|0.89`, mu.89u=`0.89|`, sim.89l=V5, sim.89u=V6)
```

    ## Warning: `as_tibble.matrix()` requires a matrix with column names or a `.name_repair` argument. Using compatibility `.name_repair`.
    ## This warning is displayed once per session.

``` {.r}
plot.data
```

    ## # A tibble: 43 x 6
    ##    weight mu.mean mu.89l mu.89u sim.89l sim.89u
    ##     <dbl>   <dbl>  <dbl>  <dbl>   <dbl>   <dbl>
    ##  1   3.25    67.1   65.3   69.3    53.1    82.1
    ##  2   4.25    69.8   68.1   71.9    55.7    82.6
    ##  3   5.25    72.5   70.9   74.5    60.5    86.9
    ##  4   6.25    75.2   73.8   77.3    62.1    88.8
    ##  5   7.25    78.0   76.5   79.7    63.7    90.4
    ##  6   8.25    80.7   79.4   82.4    67.1    94.3
    ##  7   9.25    83.4   81.9   84.7    71.1    96.7
    ##  8  10.3     86.1   84.8   87.5    73.3    99.6
    ##  9  11.3     88.8   87.6   90.1    76.2   104. 
    ## 10  12.3     91.5   90.5   92.9    78.1   104. 
    ## # … with 33 more rows
…
