…
```
## See spec(...) for full column specifications.
```

```r
d
```

```
## # A tibble: 1,008 x 3
##      hyp trt   species        
##    <dbl> <chr> <chr>          
##  1  19.5 H     S. pennellii   
##  2  31.3 H     S. peruvianum  
##  3  56.6 H     S. peruvianum  
##  4  35.2 H     S. chilense    
##  5  35.3 H     S. chilense    
##  6  28.7 H     S. chmielewskii
##  7  33.1 H     S. habrochaites
##  8  42.1 H     S. pennellii   
##  9  32.7 H     S. peruvianum  
## 10  34.3 H     S. peruvianum  
## # … with 998 more rows
```
…
